%YAML 1.1
%TAG !u! tag:unity3d.com,2011:
--- !u!21 &2100000
Material:
  serializedVersion: 6
  m_ObjectHideFlags: 0
  m_CorrespondingSourceObject: {fileID: 0}
  m_PrefabInstance: {fileID: 0}
  m_PrefabAsset: {fileID: 0}
  m_Name: Ear
  m_Shader: {fileID: 4800000, guid: 9baf30ce95c751649b14d96da3a4b4d5, type: 3}
  m_ShaderKeywords: _ _EMISSIVE_SIMPLE _OUTLINE_NML _SPECULARHIGHLIGHTS_OFF
  m_LightmapFlags: 4
  m_EnableInstancingVariants: 0
  m_DoubleSidedGI: 0
  m_CustomRenderQueue: -1
  stringTagMap: {}
  disabledShaderPasses: []
  m_SavedProperties:
    serializedVersion: 3
    m_TexEnvs:
    - _1st_ShadeMap:
        m_Texture: {fileID: 0}
        m_Scale: {x: 1, y: 1}
        m_Offset: {x: 0, y: 0}
    - _2nd_ShadeMap:
        m_Texture: {fileID: 0}
        m_Scale: {x: 1, y: 1}
        m_Offset: {x: 0, y: 0}
    - _BakedNormal:
        m_Texture: {fileID: 0}
        m_Scale: {x: 1, y: 1}
        m_Offset: {x: 0, y: 0}
    - _BaseMap:
        m_Texture: {fileID: 0}
        m_Scale: {x: 1, y: 1}
        m_Offset: {x: 0, y: 0}
    - _BumpMap:
        m_Texture: {fileID: 2800000, guid: b384c7f160a2fb446b2304ec223d9d03, type: 3}
        m_Scale: {x: 1, y: 1}
        m_Offset: {x: 0, y: 0}
    - _EmissionMap:
        m_Texture: {fileID: 0}
        m_Scale: {x: 1, y: 1}
        m_Offset: {x: 0, y: 0}
    - _EmissionParallaxDepthMask:
        m_Texture: {fileID: 0}
        m_Scale: {x: 1, y: 1}
        m_Offset: {x: 0, y: 0}
    - _EmissionParallaxMask:
        m_Texture: {fileID: 0}
        m_Scale: {x: 1, y: 1}
        m_Offset: {x: 0, y: 0}
    - _EmissionParallaxTex:
        m_Texture: {fileID: 0}
        m_Scale: {x: 1, y: 1}
        m_Offset: {x: 0, y: 0}
    - _Emissive_Tex:
        m_Texture: {fileID: 0}
        m_Scale: {x: 1, y: 1}
        m_Offset: {x: 0, y: 0}
    - _GlossBlendMask:
        m_Texture: {fileID: 0}
        m_Scale: {x: 1, y: 1}
        m_Offset: {x: 0, y: 0}
    - _HighColor_Tex:
        m_Texture: {fileID: 0}
        m_Scale: {x: 1, y: 1}
        m_Offset: {x: 0, y: 0}
    - _MainTex:
        m_Texture: {fileID: 2800000, guid: 6feb23908fbe6d147bcdf4469dcc81c0, type: 3}
        m_Scale: {x: 1, y: 1}
        m_Offset: {x: 0, y: 0}
    - _MatCap:
        m_Texture: {fileID: 0}
        m_Scale: {x: 1, y: 1}
        m_Offset: {x: 0, y: 0}
    - _MatCap_Sampler:
        m_Texture: {fileID: 0}
        m_Scale: {x: 1, y: 1}
        m_Offset: {x: 0, y: 0}
    - _MatcapBlendMask:
        m_Texture: {fileID: 0}
        m_Scale: {x: 1, y: 1}
        m_Offset: {x: 0, y: 0}
    - _MatcapTexture:
        m_Texture: {fileID: 0}
        m_Scale: {x: 1, y: 1}
        m_Offset: {x: 0, y: 0}
    - _MetallicGlossMap:
        m_Texture: {fileID: 0}
        m_Scale: {x: 1, y: 1}
        m_Offset: {x: 0, y: 0}
    - _NormalMap:
        m_Texture: {fileID: 0}
        m_Scale: {x: 1, y: 1}
        m_Offset: {x: 0, y: 0}
    - _NormalMapForMatCap:
        m_Texture: {fileID: 0}
        m_Scale: {x: 1, y: 1}
        m_Offset: {x: 0, y: 0}
    - _OutlineTex:
        m_Texture: {fileID: 0}
        m_Scale: {x: 1, y: 1}
        m_Offset: {x: 0, y: 0}
    - _OutlineTexture:
        m_Texture: {fileID: 0}
        m_Scale: {x: 1, y: 1}
        m_Offset: {x: 0, y: 0}
    - _OutlineWidthMask:
        m_Texture: {fileID: 0}
        m_Scale: {x: 1, y: 1}
        m_Offset: {x: 0, y: 0}
    - _Outline_Sampler:
        m_Texture: {fileID: 0}
        m_Scale: {x: 1, y: 1}
        m_Offset: {x: 0, y: 0}
    - _PointShadowborderBlurMask:
        m_Texture: {fileID: 0}
        m_Scale: {x: 1, y: 1}
        m_Offset: {x: 0, y: 0}
    - _ReflectionCubemap:
        m_Texture: {fileID: 0}
        m_Scale: {x: 1, y: 1}
        m_Offset: {x: 0, y: 0}
    - _ReflectionReflectionMask:
        m_Texture: {fileID: 0}
        m_Scale: {x: 1, y: 1}
        m_Offset: {x: 0, y: 0}
    - _RimBlendMask:
        m_Texture: {fileID: 0}
        m_Scale: {x: 1, y: 1}
        m_Offset: {x: 0, y: 0}
    - _RimTexture:
        m_Texture: {fileID: 0}
        m_Scale: {x: 1, y: 1}
        m_Offset: {x: 0, y: 0}
    - _Set_1st_ShadePosition:
        m_Texture: {fileID: 0}
        m_Scale: {x: 1, y: 1}
        m_Offset: {x: 0, y: 0}
    - _Set_2nd_ShadePosition:
        m_Texture: {fileID: 0}
        m_Scale: {x: 1, y: 1}
        m_Offset: {x: 0, y: 0}
    - _Set_HighColorMask:
        m_Texture: {fileID: 0}
        m_Scale: {x: 1, y: 1}
        m_Offset: {x: 0, y: 0}
    - _Set_MatcapMask:
        m_Texture: {fileID: 0}
        m_Scale: {x: 1, y: 1}
        m_Offset: {x: 0, y: 0}
    - _Set_RimLightMask:
        m_Texture: {fileID: 0}
        m_Scale: {x: 1, y: 1}
        m_Offset: {x: 0, y: 0}
    - _ShadowCapBlendMask:
        m_Texture: {fileID: 0}
        m_Scale: {x: 1, y: 1}
        m_Offset: {x: 0, y: 0}
    - _ShadowCapTexture:
        m_Texture: {fileID: 0}
        m_Scale: {x: 1, y: 1}
        m_Offset: {x: 0, y: 0}
    - _ShadowPlanB2CustomShadowTexture:
        m_Texture: {fileID: 0}
        m_Scale: {x: 1, y: 1}
        m_Offset: {x: 0, y: 0}
    - _ShadowPlanBCustomShadowTexture:
        m_Texture: {fileID: 0}
        m_Scale: {x: 1, y: 1}
        m_Offset: {x: 0, y: 0}
    - _ShadowStrengthMask:
        m_Texture: {fileID: 0}
        m_Scale: {x: 1, y: 1}
        m_Offset: {x: 0, y: 0}
    - _ShadowborderBlurMask:
        m_Texture: {fileID: 0}
        m_Scale: {x: 1, y: 1}
        m_Offset: {x: 0, y: 0}
    m_Floats:
    - _1st2nd_Shades_Feather: 1
    - _1st_ShadeColor_Feather: 0.193
    - _1st_ShadeColor_Step: 0.6
    - _2nd_ShadeColor_Feather: 1
    - _2nd_ShadeColor_Step: 0.3
    - _Add_Antipodean_RimLight: 0
    - _Ap_RimLight_FeatherOff: 0
    - _Ap_RimLight_Power: 0.1
    - _BaseColor_Step: 0.6
    - _BaseShade_Feather: 0.193
    - _Base_Speed: 0
    - _BlurLevelMatcap: 0
    - _BumpScale: 1
    - _BumpScaleMatcap: 1
    - _CameraRolling_Stabilizer: 1
    - _ColorShift_Speed: 0
    - _CullMode: 2
    - _CustomShadow2nd: 0
    - _DoubleSidedBackfaceHueShiftFromBase: 0
    - _DoubleSidedBackfaceLightIntensity: 0.5
    - _DoubleSidedBackfaceSaturationFromBase: 1
    - _DoubleSidedBackfaceUseColorShift: 0
    - _DoubleSidedBackfaceValueFromBase: 1
    - _DoubleSidedFlipBackfaceNormal: 0
    - _EMISSIVE: 0
    - _EmissionParallaxDepth: 0
    - _EmissionParallaxDepthMaskInvert: 0
    - _EnableEmission: 0
    - _Farthest_Distance: 100
    - _GI_Intensity: 0
    - _GlossBlend: 0.5
    - _GlossPower: 0.5
    - _Glossiness: 1
    - _HighColor_Power: 0
    - _Inverse_MatcapMask: 0
    - _Inverse_Z_Axis_BLD: 1
    - _Is_BLD: 0
    - _Is_BakedNormal: 0
    - _Is_BlendAddToHiColor: 0
    - _Is_BlendAddToMatCap: 1
    - _Is_BlendBaseColor: 0
    - _Is_ColorShift: 0
    - _Is_Filter_HiCutPointLightColor: 1
    - _Is_Filter_LightColor: 1
    - _Is_LightColor_1st_Shade: 1
    - _Is_LightColor_2nd_Shade: 1
    - _Is_LightColor_Ap_RimLight: 1
    - _Is_LightColor_Base: 1
    - _Is_LightColor_HighColor: 1
    - _Is_LightColor_MatCap: 1
    - _Is_LightColor_Outline: 1
    - _Is_LightColor_RimLight: 1
    - _Is_NormalMapForMatCap: 0
    - _Is_NormalMapToBase: 0
    - _Is_NormalMapToHighColor: 0
    - _Is_NormalMapToRimLight: 0
    - _Is_Ortho: 0
    - _Is_OutlineTex: 0
    - _Is_PingPong_Base: 0
    - _Is_SpecularToHighColor: 0
    - _Is_UseTweakHighColorOnShadow: 0
    - _Is_UseTweakMatCapOnShadow: 0
    - _Is_ViewCoord_Scroll: 0
    - _Is_ViewShift: 0
    - _LightDirection_MaskOn: 0
    - _LightSampling: 0
    - _MatCap: 0
    - _MatcapBlend: 1
    - _MatcapBlendMode: 3
    - _MatcapNormalMix: 1
    - _MatcapShadeMix: 0
    - _Metallic: 1
    - _Nearest_Distance: 0.5
    - _OUTLINE: 0
    - _Offset_X_Axis_BLD: -0.05
    - _Offset_Y_Axis_BLD: 0.09
    - _Offset_Z: 0
    - _OtherShadowAdjust: -0.1
    - _OtherShadowBorderSharpness: 3
    - _OutlineHueShiftFromBase: 0
    - _OutlineSaturationFromBase: 1
    - _OutlineShadeMix: 0
    - _OutlineTextureColorRate: 0.05
    - _OutlineUseColorShift: 0
    - _OutlineValueFromBase: 1
    - _OutlineWidth: 0.1
    - _Outline_Width: 1
    - _PointAddIntensity: 1
    - _PointShadowSteps: 2
    - _PointShadowStrength: 0.5
    - _PointShadowUseStep: 0
    - _PointShadowborder: 0.5
    - _PointShadowborderBlur: 0.01
    - _ReflectionNormalMix: 1
    - _ReflectionReflectionPower: 1
    - _ReflectionShadeMix: 0
    - _ReflectionSuppressBaseColorValue: 1
    - _RimBlend: 1
    - _RimFresnelPower: 1
    - _RimLight: 0
    - _RimLight_FeatherOff: 0
    - _RimLight_InsideMask: 0.0001
    - _RimLight_Power: 0.1
    - _RimShadeMix: 0
    - _RimUpperSideWidth: 0
    - _RimUseBaseTexture: 0
    - _Rotate_EmissiveUV: 0
    - _Rotate_MatCapUV: 0
    - _Rotate_NormalMapForMatCapUV: 0
    - _Scroll_EmissiveU: 0
    - _Scroll_EmissiveV: 0
    - _Set_SystemShadowsToBase: 0
    - _ShadeColor_Step: 0.3
    - _ShadowCapBlend: 1
    - _ShadowCapBlendMode: 3
    - _ShadowCapNormalMix: 1
    - _ShadowCasterCulling: 2
    - _ShadowIndirectIntensity: 0.25
    - _ShadowPlanB2HueShiftFromBase: 0
    - _ShadowPlanB2SaturationFromBase: 1
    - _ShadowPlanB2UseCustomShadowTexture: 0
    - _ShadowPlanB2ValueFromBase: 1
    - _ShadowPlanB2border: 0.55
    - _ShadowPlanB2borderBlur: 0.55
    - _ShadowPlanBDefaultShadowMix: 1
    - _ShadowPlanBHueShiftFromBase: 0
    - _ShadowPlanBSaturationFromBase: 1
    - _ShadowPlanBUseCustomShadowTexture: 0
    - _ShadowPlanBUsePlanB: 0
    - _ShadowPlanBValueFromBase: 1
    - _ShadowSteps: 4
    - _ShadowStrength: 0.5
    - _ShadowUseStep: 0
    - _Shadowborder: 0.6
    - _ShadowborderBlur: 0.05
    - _Shininess: 0.078125
    - _SpecularHighlights: 0
    - _StepOffset: 0
    - _TweakHighColorOnShadow: 0
    - _TweakMatCapOnShadow: 0
    - _Tweak_HighColorMaskLevel: 0
    - _Tweak_LightDirection_MaskLevel: 0
    - _Tweak_MatCapUV: 0
    - _Tweak_MatcapMaskLevel: 0
    - _Tweak_RimLightMaskLevel: 0
    - _Tweak_SystemShadowsLevel: 0
    - _Unlit_Intensity: 3
    - _UseDoubleSided: 0
    - _UseEmissionParallax: 0
    - _UseGloss: 0
    - _UseOutline: 0
    - _UsePositionRelatedCalc: 0
    - _UseReflection: 0
    - _UseReflectionProbe: 1
    - _UseRim: 0
    - _UseVertexLight: 1
    - _Use_1stAs2nd: 1
    - _Use_BaseAs1st: 1
    - _Version: 1026
    - _VertexColorBlendDiffuse: 0
    - _VertexColorBlendEmissive: 0
    - _simpleUI: 0
    - _utsTechnique: 0
    - _utsVersion: 2.075
    m_Colors:
    - _1st_ShadeColor: {r: 1, g: 0.937, b: 0.937, a: 1}
    - _2nd_ShadeColor: {r: 1, g: 0.888, b: 0.888, a: 1}
    - _Ap_RimLightColor: {r: 1, g: 1, b: 1, a: 1}
    - _BaseColor: {r: 1, g: 1, b: 1, a: 1}
    - _Color: {r: 1, g: 1, b: 1, a: 1}
    - _ColorShift: {r: 0, g: 0, b: 0, a: 1}
    - _EmissionColor: {r: 0, g: 0, b: 0, a: 1}
    - _EmissionParallaxColor: {r: 1, g: 1, b: 1, a: 1}
    - _Emissive_Color: {r: 0, g: 0, b: 0, a: 1}
    - _GlossColor: {r: 1, g: 1, b: 1, a: 1}
    - _HighColor: {r: 0, g: 0, b: 0, a: 1}
    - _MatCapColor: {r: 1, g: 1, b: 1, a: 1}
    - _MatcapColor: {r: 1, g: 1, b: 1, a: 1}
    - _OutlineColor: {r: 0, g: 0, b: 0, a: 1}
    - _Outline_Color: {r: 0, g: 0, b: 0, a: 1}
    - _RimColor: {r: 1, g: 1, b: 1, a: 1}
    - _RimLightColor: {r: 1, g: 1, b: 1, a: 1}
    - _ShadowPlanB2CustomShadowTextureRGB: {r: 1, g: 1, b: 1, a: 1}
    - _ShadowPlanBCustomShadowTextureRGB: {r: 1, g: 1, b: 1, a: 1}
    - _ViewShift: {r: 0, g: 0, b: 0, a: 1}
