%YAML 1.1
%TAG !u! tag:unity3d.com,2011:
--- !u!21 &2100000
Material:
  serializedVersion: 6
  m_ObjectHideFlags: 0
  m_CorrespondingSourceObject: {fileID: 0}
  m_PrefabInstance: {fileID: 0}
  m_PrefabAsset: {fileID: 0}
  m_Name: Firina_mat_face 1
  m_Shader: {fileID: 4800000, guid: 906a3fa760d9cf640ae5dbf757e97213, type: 3}
  m_ShaderKeywords: 
  m_LightmapFlags: 4
  m_EnableInstancingVariants: 0
  m_DoubleSidedGI: 0
  m_CustomRenderQueue: -1
  stringTagMap: {}
  disabledShaderPasses: []
  m_SavedProperties:
    serializedVersion: 3
    m_TexEnvs:
    - _BumpMap:
        m_Texture: {fileID: 0}
        m_Scale: {x: 1, y: 1}
        m_Offset: {x: 0, y: 0}
    - _DetailAlbedoMap:
        m_Texture: {fileID: 0}
        m_Scale: {x: 1, y: 1}
        m_Offset: {x: 0, y: 0}
    - _DetailMask:
        m_Texture: {fileID: 0}
        m_Scale: {x: 1, y: 1}
        m_Offset: {x: 0, y: 0}
    - _DetailNormalMap:
        m_Texture: {fileID: 0}
        m_Scale: {x: 1, y: 1}
        m_Offset: {x: 0, y: 0}
    - _EmissionMap:
        m_Texture: {fileID: 2800000, guid: 6680b24039df8604ebda45e1f182d39e, type: 3}
        m_Scale: {x: 1, y: 1}
        m_Offset: {x: 0, y: 0}
    - _EmissionParallaxDepthMask:
        m_Texture: {fileID: 0}
        m_Scale: {x: 1, y: 1}
        m_Offset: {x: 0, y: 0}
    - _EmissionParallaxMask:
        m_Texture: {fileID: 0}
        m_Scale: {x: 1, y: 1}
        m_Offset: {x: 0, y: 0}
    - _EmissionParallaxTex:
        m_Texture: {fileID: 0}
        m_Scale: {x: 1, y: 1}
        m_Offset: {x: 0, y: 0}
    - _GlossBlendMask:
        m_Texture: {fileID: 0}
        m_Scale: {x: 1, y: 1}
        m_Offset: {x: 0, y: 0}
    - _LightRamp:
        m_Texture: {fileID: 0}
        m_Scale: {x: 1, y: 1}
        m_Offset: {x: 0, y: 0}
    - _MainTex:
        m_Texture: {fileID: 2800000, guid: 552f268017ae24c4596c4e3ed37878dc, type: 3}
        m_Scale: {x: 1, y: 1}
        m_Offset: {x: 0, y: 0}
    - _MatcapBlendMask:
        m_Texture: {fileID: 0}
        m_Scale: {x: 1, y: 1}
        m_Offset: {x: 0, y: 0}
    - _MatcapTexture:
        m_Texture: {fileID: 0}
        m_Scale: {x: 1, y: 1}
        m_Offset: {x: 0, y: 0}
    - _MetallicGlossMap:
        m_Texture: {fileID: 0}
        m_Scale: {x: 1, y: 1}
        m_Offset: {x: 0, y: 0}
    - _OcclusionMap:
        m_Texture: {fileID: 0}
        m_Scale: {x: 1, y: 1}
        m_Offset: {x: 0, y: 0}
    - _OutlineMask:
        m_Texture: {fileID: 0}
        m_Scale: {x: 1, y: 1}
        m_Offset: {x: 0, y: 0}
    - _OutlineTexture:
        m_Texture: {fileID: 0}
        m_Scale: {x: 1, y: 1}
        m_Offset: {x: 0, y: 0}
    - _OutlineWidthMask:
        m_Texture: {fileID: 2800000, guid: 5ac6dcb446b3d1d48b21b340063fbb06, type: 3}
        m_Scale: {x: 1, y: 1}
        m_Offset: {x: 0, y: 0}
    - _ParallaxMap:
        m_Texture: {fileID: 0}
        m_Scale: {x: 1, y: 1}
        m_Offset: {x: 0, y: 0}
    - _PointShadowborderBlurMask:
        m_Texture: {fileID: 0}
        m_Scale: {x: 1, y: 1}
        m_Offset: {x: 0, y: 0}
    - _ReflectionCubemap:
        m_Texture: {fileID: 0}
        m_Scale: {x: 1, y: 1}
        m_Offset: {x: 0, y: 0}
    - _ReflectionReflectionMask:
        m_Texture: {fileID: 0}
        m_Scale: {x: 1, y: 1}
        m_Offset: {x: 0, y: 0}
    - _RimBlendMask:
        m_Texture: {fileID: 2800000, guid: 5ac6dcb446b3d1d48b21b340063fbb06, type: 3}
        m_Scale: {x: 1, y: 1}
        m_Offset: {x: 0, y: 0}
    - _RimTexture:
        m_Texture: {fileID: 0}
        m_Scale: {x: 1, y: 1}
        m_Offset: {x: 0, y: 0}
    - _ShadowCapBlendMask:
        m_Texture: {fileID: 0}
        m_Scale: {x: 1, y: 1}
        m_Offset: {x: 0, y: 0}
    - _ShadowCapTexture:
        m_Texture: {fileID: 0}
        m_Scale: {x: 1, y: 1}
        m_Offset: {x: 0, y: 0}
    - _ShadowPlanB2CustomShadowTexture:
        m_Texture: {fileID: 0}
        m_Scale: {x: 1, y: 1}
        m_Offset: {x: 0, y: 0}
    - _ShadowPlanBCustomShadowTexture:
        m_Texture: {fileID: 0}
        m_Scale: {x: 1, y: 1}
        m_Offset: {x: 0, y: 0}
    - _ShadowStrengthMask:
        m_Texture: {fileID: 0}
        m_Scale: {x: 1, y: 1}
        m_Offset: {x: 0, y: 0}
    - _ShadowborderBlurMask:
        m_Texture: {fileID: 0}
        m_Scale: {x: 1, y: 1}
        m_Offset: {x: 0, y: 0}
    - _texcoord:
        m_Texture: {fileID: 0}
        m_Scale: {x: 1, y: 1}
        m_Offset: {x: 0, y: 0}
    - _texcoord2:
        m_Texture: {fileID: 0}
        m_Scale: {x: 1, y: 1}
        m_Offset: {x: 0, y: 0}
    m_Floats:
    - _Apply: 0
    - _BumpScale: 1
    - _CustomShadow2nd: 0
    - _Cutoff: 0.5
    - _CutoutCutoutAdjust: 0.5
    - _DetailNormalMapScale: 1
    - _DoubleSidedBackfaceHueShiftFromBase: 0
    - _DoubleSidedBackfaceLightIntensity: 1
    - _DoubleSidedBackfaceSaturationFromBase: 1.2
    - _DoubleSidedBackfaceUseColorShift: 1
    - _DoubleSidedBackfaceValueFromBase: 0.3
    - _DoubleSidedFlipBackfaceNormal: 0
    - _DstBlend: 0
    - _EmissionParallaxDepth: 0
    - _EmissionParallaxDepthMaskInvert: 0
    - _FlipLightRamp: 0
    - _Float0: -0.1
    - _Float1: 0
    - _Float2: 0
    - _GlossBlend: 0.5
    - _GlossMapScale: 1
    - _GlossPower: 0.5
    - _Glossiness: 0
    - _GlossyReflections: 1
    - _LightSampling: 0
    - _MatcapBlend: 1
    - _MatcapBlendMode: 3
    - _MatcapNormalMix: 1
    - _MatcapShadeMix: 0
    - _Metallic: 0
    - _Mode: 0
    - _OcclusionStrength: 1
    - _OtherShadowAdjust: -0.1
    - _OtherShadowBorderSharpness: 3
    - _OutlineCutoffRange: 0.5
    - _OutlineHueShiftFromBase: 0
    - _OutlineSaturationFromBase: 1
    - _OutlineShadeMix: 1
    - _OutlineTextureColorRate: 0.357
    - _OutlineUseColorShift: 0
    - _OutlineValueFromBase: 1
    - _OutlineWidth: 0.07
    - _Parallax: 0.02
    - _PointAddIntensity: 1
    - _PointShadowSteps: 2
    - _PointShadowStrength: 0.5
    - _PointShadowUseStep: 0
    - _PointShadowborder: 0.5
    - _PointShadowborderBlur: 0.01
    - _ReflectionNormalMix: 1
    - _ReflectionReflectionPower: 1
    - _ReflectionShadeMix: 0
    - _ReflectionSuppressBaseColorValue: 1
    - _RimBlend: 0.1
    - _RimFresnelPower: 14.6
    - _RimShadeMix: 1
    - _RimUpperSideWidth: 0.289
    - _RimUseBaseTexture: 0
    - _ShadowCapBlend: 1
    - _ShadowCapBlendMode: 3
    - _ShadowCapNormalMix: 1
    - _ShadowCasterCulling: 0
    - _ShadowIndirectIntensity: 0.25
    - _ShadowPlanB2HueShiftFromBase: 0
    - _ShadowPlanB2SaturationFromBase: 1
    - _ShadowPlanB2UseCustomShadowTexture: 0
    - _ShadowPlanB2ValueFromBase: 1
    - _ShadowPlanB2border: 0.55
    - _ShadowPlanB2borderBlur: 0.55
    - _ShadowPlanBDefaultShadowMix: 1
    - _ShadowPlanBHueShiftFromBase: 0
    - _ShadowPlanBSaturationFromBase: 1
    - _ShadowPlanBUseCustomShadowTexture: 0
    - _ShadowPlanBUsePlanB: 1
    - _ShadowPlanBValueFromBase: 1
    - _ShadowSteps: 4
    - _ShadowStrength: 0.2
    - _ShadowUseStep: 0
    - _Shadowborder: 0.7
    - _ShadowborderBlur: 0.2
    - _Smoothness: 0
    - _SmoothnessTextureChannel: 0
    - _SpecularHighlights: 1
    - _SrcBlend: 1
    - _UVSec: 0
    - _UseDoubleSided: 1
    - _UseEmissionParallax: 0
    - _UseGloss: 0
    - _UseOutline: 1
    - _UsePositionRelatedCalc: 0
    - _UseReflection: 0
    - _UseReflectionProbe: 1
    - _UseRim: 1
    - _UseVertexLight: 1
    - _Version: 1026
    - _VertexColorBlendDiffuse: 0
    - _VertexColorBlendEmissive: 0
    - _ZWrite: 1
    - __dirty: 0
    m_Colors:
    - _Color: {r: 1, g: 1, b: 1, a: 1}
    - _EmissionColor: {r: 0.5, g: 0.5, b: 0.5, a: 0}
    - _EmissionParallaxColor: {r: 1, g: 1, b: 1, a: 1}
    - _GlossColor: {r: 1, g: 1, b: 1, a: 1}
    - _MatcapColor: {r: 1, g: 1, b: 1, a: 1}
    - _OutlineColor: {r: 0.8014706, g: 0.40343407, b: 0.21804716, a: 1}
    - _RimColor: {r: 0.9852941, g: 0.6955017, b: 0.6955017, a: 1}
    - _ShadowPlanB2CustomShadowTextureRGB: {r: 1, g: 1, b: 1, a: 1}
    - _ShadowPlanBCustomShadowTextureRGB: {r: 1, g: 1, b: 1, a: 1}
    - _Vector1: {r: 0.4, g: 0.8, b: 0, a: 0}
    - _Vector2: {r: 0, g: 0, b: 0, a: 0}
    - _Vector3: {r: 0, g: 0, b: 0, a: 0}
