%YAML 1.1
%TAG !u! tag:unity3d.com,2011:
--- !u!114 &11400000
MonoBehaviour:
  m_ObjectHideFlags: 0
  m_CorrespondingSourceObject: {fileID: 0}
  m_PrefabInstance: {fileID: 0}
  m_PrefabAsset: {fileID: 0}
  m_GameObject: {fileID: 0}
  m_Enabled: 1
  m_EditorHideFlags: 0
  m_Script: {fileID: 11500000, guid: 78b2425a2284af743826c689403a4924, type: 3}
  m_Name: Stepper
  m_EditorClassIdentifier: 
  m_functionInfo: "// Made with Amplify Shader Editor\n// Available at the Unity Asset
    Store - http://u3d.as/y3X \n/*ASEBEGIN\nVersion=18800\n557;73;1361;927;981.5;503.5;1;True;False\nNode;AmplifyShaderEditor.SimpleDivideOpNode;3;-411.5,-105.5;Inherit;False;2;0;FLOAT4;0,0,0,0;False;1;FLOAT;0;False;1;FLOAT4;0\nNode;AmplifyShaderEditor.SimpleMultiplyOpNode;8;-138.5,-96.5;Inherit;False;2;2;0;FLOAT4;0,0,0,0;False;1;FLOAT;0;False;1;FLOAT4;0\nNode;AmplifyShaderEditor.FloorOpNode;6;-272.5,-106.5;Inherit;False;1;0;FLOAT4;0,0,0,0;False;1;FLOAT4;0\nNode;AmplifyShaderEditor.FractNode;7;-259.5,-7.5;Inherit;False;1;0;FLOAT4;0,0,0,0;False;1;FLOAT4;0\nNode;AmplifyShaderEditor.FunctionInput;1;-559.5,-115.5;Inherit;False;Input;4;0;False;1;0;FLOAT4;0,0,0,0;False;1;FLOAT4;0\nNode;AmplifyShaderEditor.FunctionInput;2;-568.5,-40.5;Inherit;False;StepSize;1;1;False;1;0;FLOAT;0;False;1;FLOAT;0\nNode;AmplifyShaderEditor.FunctionOutput;5;-142.5,-0.5;Inherit;False;False;-1;Percent;1;False;1;0;FLOAT4;0,0,0,0;False;1;FLOAT4;0\nNode;AmplifyShaderEditor.FunctionOutput;0;-296,-204;Inherit;False;True;-1;StepSpace;3;False;1;0;FLOAT4;0,0,0,0;False;1;FLOAT4;0\nNode;AmplifyShaderEditor.FunctionOutput;4;-129.5,-198.5;Inherit;False;False;-1;StepID;0;False;1;0;FLOAT4;0,0,0,0;False;1;FLOAT4;0\nNode;AmplifyShaderEditor.FunctionOutput;10;-8.5,-96.5;Inherit;False;False;-1;StepVal;2;True;1;0;FLOAT4;0,0,0,0;False;1;FLOAT4;0\nWireConnection;3;0;1;0\nWireConnection;3;1;2;0\nWireConnection;8;0;6;0\nWireConnection;8;1;2;0\nWireConnection;6;0;3;0\nWireConnection;7;0;3;0\nWireConnection;5;0;7;0\nWireConnection;0;0;3;0\nWireConnection;4;0;6;0\nWireConnection;10;0;8;0\nASEEND*/\n//CHKSM=3A9369B58BEA12CBD698EE5C728615276B633B83"
  m_functionName: 
  m_description: 
  m_additionalIncludes:
    m_additionalIncludes: []
    m_outsideIncludes: []
  m_additionalPragmas:
    m_additionalPragmas: []
    m_outsidePragmas: []
  m_additionalDirectives:
    m_validData: 0
    m_isDirty: 0
    m_moduleName: ' Additional Directives'
    m_independentModule: 1
    m_additionalDirectives: []
    m_shaderFunctionDirectives: []
    m_nativeDirectives: []
    m_nativeDirectivesIndex: -1
    m_nativeDirectivesFoldout: 0
    m_directivesSaveItems: []
  m_nodeCategory: 3
  m_customNodeCategory: 
  m_previewPosition: 0
  m_hidden: 0
